{"actions":[{"id":85319796,"status":"completed","type":"power_on","started_at":"2016-02-23T09:59:31Z","completed_at":"2016-02-23T09:59:35Z","resource_id":11373834,"resource_type":"droplet","region":{"name":"New York 3","slug":"nyc3","sizes":["512mb","1gb","2gb","4gb","8gb","16gb","32gb","48gb","64gb"],"features":["private_networking","backups","ipv6","metadata"],"available":true},"region_slug":"nyc3"},{"id":85319747,"status":"completed","type":"power_off","started_at":"2016-02-23T09:58:48Z","completed_at":"2016-02-23T09:59:01Z","resource_id":11373834,"resource_type":"droplet","region":{"name":"New York 3","slug":"nyc3","sizes":["512mb","1gb","2gb","4gb","8gb","16gb","32gb","48gb","64gb"],"features":["private_networking","backups","ipv6","metadata"],"available":true},"region_slug":"nyc3"},{"id":85319501,"status":"completed","type":"power_on","started_at":"2016-02-23T09:55:28Z","completed_at":"2016-02-23T09:55:31Z","resource_id":11373834,"resource_type":"droplet","region":{"name":"New York 3","slug":"nyc3","sizes":["512mb","1gb","2gb","4gb","8gb","16gb","32gb","48gb","64gb"],"features":["private_networking","backups","ipv6","metadata"],"available":true},"region_slug":"nyc3"},{"id":85319432,"status":"completed","type":"shutdown","started_at":"2016-02-23T09:54:35Z","completed_at":"2016-02-23T09:54:37Z","resource_id":11373834,"resource_type":"droplet","region":{"name":"New York 3","slug":"nyc3","sizes":["512mb","1gb","2gb","4gb","8gb","16gb","32gb","48gb","64gb"],"features":["private_networking","backups","ipv6","metadata"],"available":true},"region_slug":"nyc3"},{"id":85319219,"status":"completed","type":"power_cycle","started_at":"2016-02-23T09:52:01Z","completed_at":"2016-02-23T09:52:07Z","resource_id":11373834,"resource_type":"droplet","region":{"name":"New York 3","slug":"nyc3","sizes":["512mb","1gb","2gb","4gb","8gb","16gb","32gb","48gb","64gb"],"features":["private_networking","backups","ipv6","metadata"],"available":true},"region_slug":"nyc3"},{"id":85318982,"status":"completed","type":"reboot","started_at":"2016-02-23T09:48:59Z","completed_at":"2016-02-23T09:49:01Z","resource_id":11373834,"resource_type":"droplet","region":{"name":"New York 3","slug":"nyc3","sizes":["512mb","1gb","2gb","4gb","8gb","16gb","32gb","48gb","64gb"],"features":["private_networking","backups","ipv6","metadata"],"available":true},"region_slug":"nyc3"},{"id":85317954,"status":"completed","type":"create","started_at":"2016-02-23T09:39:43Z","completed_at":"2016-02-23T09:40:05Z","resource_id":11373834,"resource_type":"droplet","region":{"name":"New York 3","slug":"nyc3","sizes":["512mb","1gb","2gb","4gb","8gb","16gb","32gb","48gb","64gb"],"features":["private_networking","backups","ipv6","metadata"],"available":true},"region_slug":"nyc3"},{"id":84569651,"status":"completed","type":"destroy","started_at":"2016-02-18T14:25:51Z","completed_at":"2016-02-18T14:25:56Z","resource_id":11229557,"resource_type":"droplet","region":{"name":"New York 3","slug":"nyc3","sizes":["512mb","1gb","2gb","4gb","8gb","16gb","32gb","48gb","64gb"],"features":["private_networking","backups","ipv6","metadata"],"available":true},"region_slug":"nyc3"},{"id":84561009,"status":"completed","type":"create","started_at":"2016-02-18T13:22:42Z","completed_at":"2016-02-18T13:23:25Z","resource_id":11229557,"resource_type":"droplet","region":{"name":"New York 3","slug":"nyc3","sizes":["512mb","1gb","2gb","4gb","8gb","16gb","32gb","48gb","64gb"],"features":["private_networking","backups","ipv6","metadata"],"available":true},"region_slug":"nyc3"},{"id":84343317,"status":"completed","type":"image_destroy","started_at":"2016-02-17T09:47:55Z","completed_at":"2016-02-17T09:47:55Z","resource_id":7008311,"resource_type":"image","region":null,"region_slug":null},{"id":84343189,"status":"completed","type":"unassign_ip","started_at":"2016-02-17T09:46:50Z","completed_at":"2016-02-17T09:46:55Z","resource_id":3165048728,"resource_type":"floating_ip","region":{"name":"Singapore 1","slug":"sgp1","sizes":["1gb","512mb","2gb","4gb","8gb","16gb","32gb","48gb","64gb"],"features":["private_networking","backups","ipv6","metadata"],"available":true},"region_slug":"sgp1"},{"id":84308295,"status":"completed","type":"release_ip","started_at":"2016-02-17T05:04:26Z","completed_at":"2016-02-17T05:04:26Z","resource_id":3165048729,"resource_type":"floating_ip","region":{"name":"Singapore 1","slug":"sgp1","sizes":["1gb","512mb","2gb","4gb","8gb","16gb","32gb","48gb","64gb"],"features":["private_networking","backups","ipv6","metadata"],"available":true},"region_slug":"sgp1"},{"id":84306990,"status":"completed","type":"reserve_ip","started_at":"2016-02-17T04:55:46Z","completed_at":"2016-02-17T04:55:46Z","resource_id":3165048729,"resource_type":"floating_ip","region":{"name":"Singapore 1","slug":"sgp1","sizes":["1gb","512mb","2gb","4gb","8gb","16gb","32gb","48gb","64gb"],"features":["private_networking","backups","ipv6","metadata"],"available":true},"region_slug":"sgp1"},{"id":84306991,"status":"errored","type":"assign_ip","started_at":"2016-02-17T04:55:46Z","completed_at":"2016-02-17T04:55:50Z","resource_id":3165048729,"resource_type":"floating_ip","region":{"name":"Singapore 1","slug":"sgp1","sizes":["1gb","512mb","2gb","4gb","8gb","16gb","32gb","48gb","64gb"],"features":["private_networking","backups","ipv6","metadata"],"available":true},"region_slug":"sgp1"},{"id":84306652,"status":"completed","type":"reserve_ip","started_at":"2016-02-17T04:52:15Z","completed_at":"2016-02-17T04:52:15Z","resource_id":3165048728,"resource_type":"floating_ip","region":{"name":"Singapore 1","slug":"sgp1","sizes":["1gb","512mb","2gb","4gb","8gb","16gb","32gb","48gb","64gb"],"features":["private_networking","backups","ipv6","metadata"],"available":true},"region_slug":"sgp1"},{"id":84306653,"status":"completed","type":"assign_ip","started_at":"2016-02-17T04:52:15Z","completed_at":"2016-02-17T04:52:28Z","resource_id":3165048728,"resource_type":"floating_ip","region":{"name":"Singapore 1","slug":"sgp1","sizes":["1gb","512mb","2gb","4gb","8gb","16gb","32gb","48gb","64gb"],"features":["private_networking","backups","ipv6","metadata"],"available":true},"region_slug":"sgp1"},{"id":84199733,"status":"completed","type":"password_reset","started_at":"2016-02-16T14:39:11Z","completed_at":"2016-02-16T14:40:01Z","resource_id":10495857,"resource_type":"droplet","region":{"name":"Singapore 1","slug":"sgp1","sizes":["1gb","512mb","2gb","4gb","8gb","16gb","32gb","48gb","64gb"],"features":["private_networking","backups","ipv6","metadata"],"available":true},"region_slug":"sgp1"},{"id":84199340,"status":"completed","type":"password_reset","started_at":"2016-02-16T14:36:08Z","completed_at":"2016-02-16T14:36:58Z","resource_id":10495857,"resource_type":"droplet","region":{"name":"Singapore 1","slug":"sgp1","sizes":["1gb","512mb","2gb","4gb","8gb","16gb","32gb","48gb","64gb"],"features":["private_networking","backups","ipv6","metadata"],"available":true},"region_slug":"sgp1"},{"id":84123655,"status":"completed","type":"destroy","started_at":"2016-02-16T05:31:15Z","completed_at":"2016-02-16T05:31:25Z","resource_id":11134178,"resource_type":"droplet","region":{"name":"Singapore 1","slug":"sgp1","sizes":["1gb","512mb","2gb","4gb","8gb","16gb","32gb","48gb","64gb"],"features":["private_networking","backups","ipv6","metadata"],"available":true},"region_slug":"sgp1"},{"id":84118939,"status":"completed","type":"create","started_at":"2016-02-16T04:59:56Z","completed_at":"2016-02-16T05:01:09Z","resource_id":11134178,"resource_type":"droplet","region":{"name":"Singapore 1","slug":"sgp1","sizes":["1gb","512mb","2gb","4gb","8gb","16gb","32gb","48gb","64gb"],"features":["private_networking","backups","ipv6","metadata"],"available":true},"region_slug":"sgp1"}],"links":{"pages":{"first":"https://api.digitalocean.com/v2/actions?page=1","prev":"https://api.digitalocean.com/v2/actions?page=1","last":"https://api.digitalocean.com/v2/actions?page=5","next":"https://api.digitalocean.com/v2/actions?page=3"}},"meta":{"total":87}}