{"actions":[{"id":85479654,"status":"completed","type":"release_ip","started_at":"2016-02-24T07:25:30Z","completed_at":"2016-02-24T07:25:30Z","resource_id":3165048728,"resource_type":"floating_ip","region":{"name":"Singapore 1","slug":"sgp1","sizes":["1gb","512mb","2gb","4gb","8gb","16gb","32gb","48gb","64gb"],"features":["private_networking","backups","ipv6","metadata"],"available":true},"region_slug":"sgp1"},{"id":85459850,"status":"completed","type":"image_destroy","started_at":"2016-02-24T04:27:31Z","completed_at":"2016-02-24T04:27:31Z","resource_id":15937659,"resource_type":"image","region":null,"region_slug":null},{"id":85454922,"status":"in-progress","type":"transfer","started_at":"2016-02-24T03:42:45Z","completed_at":null,"resource_id":15937659,"resource_type":"image","region":null,"region_slug":null},{"id":85448684,"status":"completed","type":"destroy","started_at":"2016-02-24T02:50:20Z","completed_at":"2016-02-24T02:50:24Z","resource_id":11401502,"resource_type":"droplet","region":{"name":"New York 3","slug":"nyc3","sizes":["512mb","1gb","2gb","4gb","8gb","16gb","32gb","48gb","64gb"],"features":["private_networking","backups","ipv6","metadata"],"available":true},"region_slug":"nyc3"},{"id":85448521,"status":"completed","type":"create","started_at":"2016-02-24T02:49:42Z","completed_at":"2016-02-24T02:50:05Z","resource_id":11401502,"resource_type":"droplet","region":{"name":"New York 3","slug":"nyc3","sizes":["512mb","1gb","2gb","4gb","8gb","16gb","32gb","48gb","64gb"],"features":["private_networking","backups","ipv6","metadata"],"available":true},"region_slug":"nyc3"},{"id":85448445,"status":"completed","type":"destroy","started_at":"2016-02-24T02:49:17Z","completed_at":"2016-02-24T02:49:21Z","resource_id":11401399,"resource_type":"droplet","region":{"name":"New York 3","slug":"nyc3","sizes":["512mb","1gb","2gb","4gb","8gb","16gb","32gb","48gb","64gb"],"features":["private_networking","backups","ipv6","metadata"],"available":true},"region_slug":"nyc3"},{"id":85448370,"status":"completed","type":"create","started_at":"2016-02-24T02:48:42Z","completed_at":"2016-02-24T02:49:01Z","resource_id":11401399,"resource_type":"droplet","region":{"name":"New York 3","slug":"nyc3","sizes":["512mb","1gb","2gb","4gb","8gb","16gb","32gb","48gb","64gb"],"features":["private_networking","backups","ipv6","metadata"],"available":true},"region_slug":"nyc3"},{"id":85448182,"status":"completed","type":"destroy","started_at":"2016-02-24T02:46:15Z","completed_at":"2016-02-24T02:46:21Z","resource_id":11373834,"resource_type":"droplet","region":{"name":"New York 3","slug":"nyc3","sizes":["512mb","1gb","2gb","4gb","8gb","16gb","32gb","48gb","64gb"],"features":["private_networking","backups","ipv6","metadata"],"available":true},"region_slug":"nyc3"},{"id":85321978,"status":"completed","type":"rename","started_at":"2016-02-23T10:20:49Z","completed_at":"2016-02-23T10:20:50Z","resource_id":11373834,"resource_type":"droplet","region":{"name":"New York 3","slug":"nyc3","sizes":["512mb","1gb","2gb","4gb","8gb","16gb","32gb","48gb","64gb"],"features":["private_networking","backups","ipv6","metadata"],"available":true},"region_slug":"nyc3"},{"id":85321705,"status":"completed","type":"disable_backups","started_at":"2016-02-23T10:19:36Z","completed_at":"2016-02-23T10:19:36Z","resource_id":11373834,"resource_type":"droplet","region":{"name":"New York 3","slug":"nyc3","sizes":["512mb","1gb","2gb","4gb","8gb","16gb","32gb","48gb","64gb"],"features":["private_networking","backups","ipv6","metadata"],"available":true},"region_slug":"nyc3"},{"id":85321611,"status":"completed","type":"enable_backups","started_at":"2016-02-23T10:18:46Z","completed_at":"2016-02-23T10:18:46Z","resource_id":11373834,"resource_type":"droplet","region":{"name":"New York 3","slug":"nyc3","sizes":["512mb","1gb","2gb","4gb","8gb","16gb","32gb","48gb","64gb"],"features":["private_networking","backups","ipv6","metadata"],"available":true},"region_slug":"nyc3"},{"id":85321275,"status":"completed","type":"rebuild","started_at":"2016-02-23T10:15:05Z","completed_at":"2016-02-23T10:16:43Z","resource_id":11373834,"resource_type":"droplet","region":{"name":"New York 3","slug":"nyc3","sizes":["512mb","1gb","2gb","4gb","8gb","16gb","32gb","48gb","64gb"],"features":["private_networking","backups","ipv6","metadata"],"available":true},"region_slug":"nyc3"},{"id":85320877,"status":"completed","type":"restore","started_at":"2016-02-23T10:10:46Z","completed_at":"2016-02-23T10:11:36Z","resource_id":11373834,"resource_type":"droplet","region":{"name":"New York 3","slug":"nyc3","sizes":["512mb","1gb","2gb","4gb","8gb","16gb","32gb","48gb","64gb"],"features":["private_networking","backups","ipv6","metadata"],"available":true},"region_slug":"nyc3"},{"id":85320512,"status":"completed","type":"snapshot","started_at":"2016-02-23T10:06:34Z","completed_at":"2016-02-23T10:07:51Z","resource_id":11373834,"resource_type":"droplet","region":{"name":"New York 3","slug":"nyc3","sizes":["512mb","1gb","2gb","4gb","8gb","16gb","32gb","48gb","64gb"],"features":["private_networking","backups","ipv6","metadata"],"available":true},"region_slug":"nyc3"},{"id":85320498,"status":"completed","type":"power_off","started_at":"2016-02-23T10:06:21Z","completed_at":"2016-02-23T10:06:33Z","resource_id":11373834,"resource_type":"droplet","region":{"name":"New York 3","slug":"nyc3","sizes":["512mb","1gb","2gb","4gb","8gb","16gb","32gb","48gb","64gb"],"features":["private_networking","backups","ipv6","metadata"],"available":true},"region_slug":"nyc3"},{"id":85320456,"status":"completed","type":"power_on","started_at":"2016-02-23T10:05:55Z","completed_at":"2016-02-23T10:05:59Z","resource_id":11373834,"resource_type":"droplet","region":{"name":"New York 3","slug":"nyc3","sizes":["512mb","1gb","2gb","4gb","8gb","16gb","32gb","48gb","64gb"],"features":["private_networking","backups","ipv6","metadata"],"available":true},"region_slug":"nyc3"},{"id":85320346,"status":"completed","type":"resize","started_at":"2016-02-23T10:04:46Z","completed_at":"2016-02-23T10:05:41Z","resource_id":11373834,"resource_type":"droplet","region":{"name":"New York 3","slug":"nyc3","sizes":["512mb","1gb","2gb","4gb","8gb","16gb","32gb","48gb","64gb"],"features":["private_networking","backups","ipv6","metadata"],"available":true},"region_slug":"nyc3"},{"id":85320158,"status":"completed","type":"resize","started_at":"2016-02-23T10:03:14Z","completed_at":"2016-02-23T10:03:55Z","resource_id":11373834,"resource_type":"droplet","region":{"name":"New York 3","slug":"nyc3","sizes":["512mb","1gb","2gb","4gb","8gb","16gb","32gb","48gb","64gb"],"features":["private_networking","backups","ipv6","metadata"],"available":true},"region_slug":"nyc3"},{"id":85320116,"status":"completed","type":"power_off","started_at":"2016-02-23T10:02:45Z","completed_at":"2016-02-23T10:02:58Z","resource_id":11373834,"resource_type":"droplet","region":{"name":"New York 3","slug":"nyc3","sizes":["512mb","1gb","2gb","4gb","8gb","16gb","32gb","48gb","64gb"],"features":["private_networking","backups","ipv6","metadata"],"available":true},"region_slug":"nyc3"},{"id":85319895,"status":"completed","type":"password_reset","started_at":"2016-02-23T10:00:22Z","completed_at":"2016-02-23T10:00:59Z","resource_id":11373834,"resource_type":"droplet","region":{"name":"New York 3","slug":"nyc3","sizes":["512mb","1gb","2gb","4gb","8gb","16gb","32gb","48gb","64gb"],"features":["private_networking","backups","ipv6","metadata"],"available":true},"region_slug":"nyc3"}],"links":{"pages":{"last":"https://api.digitalocean.com/v2/actions?page=5","next":"https://api.digitalocean.com/v2/actions?page=2"}},"meta":{"total":87}}