{"actions":[{"id":81046002,"status":"completed","type":"create","started_at":"2016-01-28T07:04:17Z","completed_at":"2016-01-28T07:04:56Z","resource_id":10495857,"resource_type":"droplet","region":{"name":"Singapore 1","slug":"sgp1","sizes":["1gb","512mb","2gb","4gb","8gb","16gb","32gb","48gb","64gb"],"features":["private_networking","backups","ipv6","metadata"],"available":true},"region_slug":"sgp1"},{"id":79414722,"status":"completed","type":"destroy","started_at":"2016-01-16T10:29:42Z","completed_at":"2016-01-16T10:29:55Z","resource_id":10199944,"resource_type":"droplet","region":{"name":"Singapore 1","slug":"sgp1","sizes":["1gb","512mb","2gb","4gb","8gb","16gb","32gb","48gb","64gb"],"features":["private_networking","backups","ipv6","metadata"],"available":true},"region_slug":"sgp1"},{"id":79404645,"status":"completed","type":"create","started_at":"2016-01-16T07:57:14Z","completed_at":"2016-01-16T07:58:04Z","resource_id":10199944,"resource_type":"droplet","region":{"name":"Singapore 1","slug":"sgp1","sizes":["1gb","512mb","2gb","4gb","8gb","16gb","32gb","48gb","64gb"],"features":["private_networking","backups","ipv6","metadata"],"available":true},"region_slug":"sgp1"},{"id":76850369,"status":"completed","type":"destroy","started_at":"2015-12-28T07:46:54Z","completed_at":"2015-12-28T07:46:58Z","resource_id":9342323,"resource_type":"droplet","region":{"name":"New York 3","slug":"nyc3","sizes":["512mb","1gb","2gb","4gb","8gb","16gb","32gb","48gb","64gb"],"features":["private_networking","backups","ipv6","metadata"],"available":true},"region_slug":"nyc3"},{"id":76850360,"status":"completed","type":"destroy","started_at":"2015-12-28T07:46:41Z","completed_at":"2015-12-28T07:46:44Z","resource_id":9342324,"resource_type":"droplet","region":{"name":"New York 3","slug":"nyc3","sizes":["512mb","1gb","2gb","4gb","8gb","16gb","32gb","48gb","64gb"],"features":["private_networking","backups","ipv6","metadata"],"available":true},"region_slug":"nyc3"},{"id":76850350,"status":"completed","type":"destroy","started_at":"2015-12-28T07:46:29Z","completed_at":"2015-12-28T07:46:32Z","resource_id":9342325,"resource_type":"droplet","region":{"name":"New York 3","slug":"nyc3","sizes":["512mb","1gb","2gb","4gb","8gb","16gb","32gb","48gb","64gb"],"features":["private_networking","backups","ipv6","metadata"],"available":true},"region_slug":"nyc3"},{"id":76850335,"status":"completed","type":"destroy","started_at":"2015-12-28T07:46:17Z","completed_at":"2015-12-28T07:46:21Z","resource_id":9342326,"resource_type":"droplet","region":{"name":"New York 3","slug":"nyc3","sizes":["512mb","1gb","2gb","4gb","8gb","16gb","32gb","48gb","64gb"],"features":["private_networking","backups","ipv6","metadata"],"available":true},"region_slug":"nyc3"},{"id":75051379,"status":"completed","type":"power_off","started_at":"2015-12-13T04:15:24Z","completed_at":"2015-12-13T04:15:38Z","resource_id":9342323,"resource_type":"droplet","region":{"name":"New York 3","slug":"nyc3","sizes":["512mb","1gb","2gb","4gb","8gb","16gb","32gb","48gb","64gb"],"features":["private_networking","backups","ipv6","metadata"],"available":true},"region_slug":"nyc3"},{"id":75051370,"status":"completed","type":"power_off","started_at":"2015-12-13T04:15:15Z","completed_at":"2015-12-13T04:15:29Z","resource_id":9342324,"resource_type":"droplet","region":{"name":"New York 3","slug":"nyc3","sizes":["512mb","1gb","2gb","4gb","8gb","16gb","32gb","48gb","64gb"],"features":["private_networking","backups","ipv6","metadata"],"available":true},"region_slug":"nyc3"},{"id":75051360,"status":"completed","type":"power_off","started_at":"2015-12-13T04:15:06Z","completed_at":"2015-12-13T04:15:19Z","resource_id":9342325,"resource_type":"droplet","region":{"name":"New York 3","slug":"nyc3","sizes":["512mb","1gb","2gb","4gb","8gb","16gb","32gb","48gb","64gb"],"features":["private_networking","backups","ipv6","metadata"],"available":true},"region_slug":"nyc3"},{"id":75051356,"status":"completed","type":"power_off","started_at":"2015-12-13T04:14:55Z","completed_at":"2015-12-13T04:15:09Z","resource_id":9342326,"resource_type":"droplet","region":{"name":"New York 3","slug":"nyc3","sizes":["512mb","1gb","2gb","4gb","8gb","16gb","32gb","48gb","64gb"],"features":["private_networking","backups","ipv6","metadata"],"available":true},"region_slug":"nyc3"},{"id":74835143,"status":"completed","type":"rebuild","started_at":"2015-12-11T04:58:29Z","completed_at":"2015-12-11T04:59:05Z","resource_id":9342323,"resource_type":"droplet","region":{"name":"New York 3","slug":"nyc3","sizes":["512mb","1gb","2gb","4gb","8gb","16gb","32gb","48gb","64gb"],"features":["private_networking","backups","ipv6","metadata"],"available":true},"region_slug":"nyc3"},{"id":74834012,"status":"completed","type":"rebuild","started_at":"2015-12-11T04:40:13Z","completed_at":"2015-12-11T04:40:44Z","resource_id":9342323,"resource_type":"droplet","region":{"name":"New York 3","slug":"nyc3","sizes":["512mb","1gb","2gb","4gb","8gb","16gb","32gb","48gb","64gb"],"features":["private_networking","backups","ipv6","metadata"],"available":true},"region_slug":"nyc3"},{"id":74828970,"status":"completed","type":"create","started_at":"2015-12-11T03:31:00Z","completed_at":"2015-12-11T03:31:26Z","resource_id":9342326,"resource_type":"droplet","region":{"name":"New York 3","slug":"nyc3","sizes":["512mb","1gb","2gb","4gb","8gb","16gb","32gb","48gb","64gb"],"features":["private_networking","backups","ipv6","metadata"],"available":true},"region_slug":"nyc3"},{"id":74828968,"status":"completed","type":"create","started_at":"2015-12-11T03:30:59Z","completed_at":"2015-12-11T03:31:33Z","resource_id":9342325,"resource_type":"droplet","region":{"name":"New York 3","slug":"nyc3","sizes":["512mb","1gb","2gb","4gb","8gb","16gb","32gb","48gb","64gb"],"features":["private_networking","backups","ipv6","metadata"],"available":true},"region_slug":"nyc3"},{"id":74828965,"status":"completed","type":"create","started_at":"2015-12-11T03:30:58Z","completed_at":"2015-12-11T03:31:35Z","resource_id":9342324,"resource_type":"droplet","region":{"name":"New York 3","slug":"nyc3","sizes":["512mb","1gb","2gb","4gb","8gb","16gb","32gb","48gb","64gb"],"features":["private_networking","backups","ipv6","metadata"],"available":true},"region_slug":"nyc3"},{"id":74828964,"status":"completed","type":"create","started_at":"2015-12-11T03:30:57Z","completed_at":"2015-12-11T03:31:32Z","resource_id":9342323,"resource_type":"droplet","region":{"name":"New York 3","slug":"nyc3","sizes":["512mb","1gb","2gb","4gb","8gb","16gb","32gb","48gb","64gb"],"features":["private_networking","backups","ipv6","metadata"],"available":true},"region_slug":"nyc3"},{"id":68723315,"status":"completed","type":"destroy","started_at":"2015-10-20T09:18:11Z","completed_at":"2015-10-20T09:18:19Z","resource_id":8211631,"resource_type":"droplet","region":{"name":"San Francisco 1","slug":"sfo1","sizes":["2gb","1gb","512mb","4gb","8gb","16gb","32gb","48gb","64gb"],"features":["private_networking","backups","ipv6","metadata"],"available":true},"region_slug":"sfo1"},{"id":68162769,"status":"completed","type":"create","started_at":"2015-10-15T08:18:50Z","completed_at":"2015-10-15T08:19:45Z","resource_id":8211631,"resource_type":"droplet","region":{"name":"San Francisco 1","slug":"sfo1","sizes":["2gb","1gb","512mb","4gb","8gb","16gb","32gb","48gb","64gb"],"features":["private_networking","backups","ipv6","metadata"],"available":true},"region_slug":"sfo1"},{"id":37347204,"status":"completed","type":"destroy","started_at":"2014-11-22T02:25:54Z","completed_at":"2014-11-22T02:29:33Z","resource_id":2922873,"resource_type":"droplet","region":{"name":"New York 3","slug":"nyc3","sizes":["512mb","1gb","2gb","4gb","8gb","16gb","32gb","48gb","64gb"],"features":["private_networking","backups","ipv6","metadata"],"available":true},"region_slug":"nyc3"}],"links":{"pages":{"first":"https://api.digitalocean.com/v2/actions?page=1","prev":"https://api.digitalocean.com/v2/actions?page=2","last":"https://api.digitalocean.com/v2/actions?page=5","next":"https://api.digitalocean.com/v2/actions?page=4"}},"meta":{"total":87}}