{"actions":[{"id":34849759,"status":"completed","type":"destroy","started_at":"2014-10-21T07:46:38Z","completed_at":"2014-10-21T07:48:13Z","resource_id":2930537,"resource_type":"droplet","region":{"name":"New York 3","slug":"nyc3","sizes":["512mb","1gb","2gb","4gb","8gb","16gb","32gb","48gb","64gb"],"features":["private_networking","backups","ipv6","metadata"],"available":true},"region_slug":"nyc3"},{"id":34842896,"status":"completed","type":"power_on","started_at":"2014-10-21T05:09:08Z","completed_at":"2014-10-21T05:09:11Z","resource_id":2930537,"resource_type":"droplet","region":{"name":"New York 3","slug":"nyc3","sizes":["512mb","1gb","2gb","4gb","8gb","16gb","32gb","48gb","64gb"],"features":["private_networking","backups","ipv6","metadata"],"available":true},"region_slug":"nyc3"},{"id":34842892,"status":"completed","type":"change_kernel","started_at":"2014-10-21T05:08:54Z","completed_at":"2014-10-21T05:08:59Z","resource_id":2930537,"resource_type":"droplet","region":{"name":"New York 3","slug":"nyc3","sizes":["512mb","1gb","2gb","4gb","8gb","16gb","32gb","48gb","64gb"],"features":["private_networking","backups","ipv6","metadata"],"available":true},"region_slug":"nyc3"},{"id":34840646,"status":"completed","type":"create","started_at":"2014-10-21T04:21:54Z","completed_at":"2014-10-21T04:22:34Z","resource_id":2930537,"resource_type":"droplet","region":{"name":"New York 3","slug":"nyc3","sizes":["512mb","1gb","2gb","4gb","8gb","16gb","32gb","48gb","64gb"],"features":["private_networking","backups","ipv6","metadata"],"available":true},"region_slug":"nyc3"},{"id":34839834,"status":"completed","type":"destroy","started_at":"2014-10-21T04:05:31Z","completed_at":"2014-10-21T04:05:37Z","resource_id":2930195,"resource_type":"droplet","region":{"name":"New York 3","slug":"nyc3","sizes":["512mb","1gb","2gb","4gb","8gb","16gb","32gb","48gb","64gb"],"features":["private_networking","backups","ipv6","metadata"],"available":true},"region_slug":"nyc3"},{"id":34838463,"status":"completed","type":"create","started_at":"2014-10-21T03:42:44Z","completed_at":"2014-10-21T03:43:07Z","resource_id":2930195,"resource_type":"droplet","region":{"name":"New York 3","slug":"nyc3","sizes":["512mb","1gb","2gb","4gb","8gb","16gb","32gb","48gb","64gb"],"features":["private_networking","backups","ipv6","metadata"],"available":true},"region_slug":"nyc3"},{"id":34797434,"status":"completed","type":"snapshot","started_at":"2014-10-20T13:58:22Z","completed_at":"2014-10-20T14:01:00Z","resource_id":2922873,"resource_type":"droplet","region":{"name":"New York 3","slug":"nyc3","sizes":["512mb","1gb","2gb","4gb","8gb","16gb","32gb","48gb","64gb"],"features":["private_networking","backups","ipv6","metadata"],"available":true},"region_slug":"nyc3"},{"id":34783107,"status":"completed","type":"create","started_at":"2014-10-20T09:03:47Z","completed_at":"2014-10-20T09:04:37Z","resource_id":2922873,"resource_type":"droplet","region":{"name":"New York 3","slug":"nyc3","sizes":["512mb","1gb","2gb","4gb","8gb","16gb","32gb","48gb","64gb"],"features":["private_networking","backups","ipv6","metadata"],"available":true},"region_slug":"nyc3"},{"id":34200410,"status":"completed","type":"destroy","started_at":"2014-10-11T13:51:05Z","completed_at":"2014-10-11T13:56:17Z","resource_id":2842060,"resource_type":"droplet","region":{"name":"New York 3","slug":"nyc3","sizes":["512mb","1gb","2gb","4gb","8gb","16gb","32gb","48gb","64gb"],"features":["private_networking","backups","ipv6","metadata"],"available":true},"region_slug":"nyc3"},{"id":34200402,"status":"completed","type":"destroy","started_at":"2014-10-11T13:50:51Z","completed_at":"2014-10-11T13:55:59Z","resource_id":2842054,"resource_type":"droplet","region":{"name":"New York 3","slug":"nyc3","sizes":["512mb","1gb","2gb","4gb","8gb","16gb","32gb","48gb","64gb"],"features":["private_networking","backups","ipv6","metadata"],"available":true},"region_slug":"nyc3"},{"id":34200397,"status":"completed","type":"destroy","started_at":"2014-10-11T13:50:40Z","completed_at":"2014-10-11T13:56:13Z","resource_id":2842053,"resource_type":"droplet","region":{"name":"New York 3","slug":"nyc3","sizes":["512mb","1gb","2gb","4gb","8gb","16gb","32gb","48gb","64gb"],"features":["private_networking","backups","ipv6","metadata"],"available":true},"region_slug":"nyc3"},{"id":34196138,"status":"completed","type":"create","started_at":"2014-10-11T11:51:10Z","completed_at":"2014-10-11T11:51:17Z","resource_id":2842060,"resource_type":"droplet","region":{"name":"New York 3","slug":"nyc3","sizes":["512mb","1gb","2gb","4gb","8gb","16gb","32gb","48gb","64gb"],"features":["private_networking","backups","ipv6","metadata"],"available":true},"region_slug":"nyc3"},{"id":34196128,"status":"completed","type":"create","started_at":"2014-10-11T11:50:47Z","completed_at":"2014-10-11T11:50:54Z","resource_id":2842054,"resource_type":"droplet","region":{"name":"New York 3","slug":"nyc3","sizes":["512mb","1gb","2gb","4gb","8gb","16gb","32gb","48gb","64gb"],"features":["private_networking","backups","ipv6","metadata"],"available":true},"region_slug":"nyc3"},{"id":34196123,"status":"completed","type":"create","started_at":"2014-10-11T11:50:24Z","completed_at":"2014-10-11T11:50:29Z","resource_id":2842053,"resource_type":"droplet","region":{"name":"New York 3","slug":"nyc3","sizes":["512mb","1gb","2gb","4gb","8gb","16gb","32gb","48gb","64gb"],"features":["private_networking","backups","ipv6","metadata"],"available":true},"region_slug":"nyc3"},{"id":34196111,"status":"completed","type":"destroy","started_at":"2014-10-11T11:49:42Z","completed_at":"2014-10-11T11:49:50Z","resource_id":2842027,"resource_type":"droplet","region":{"name":"New York 3","slug":"nyc3","sizes":["512mb","1gb","2gb","4gb","8gb","16gb","32gb","48gb","64gb"],"features":["private_networking","backups","ipv6","metadata"],"available":true},"region_slug":"nyc3"},{"id":34196076,"status":"completed","type":"destroy","started_at":"2014-10-11T11:49:28Z","completed_at":"2014-10-11T11:49:39Z","resource_id":2842024,"resource_type":"droplet","region":{"name":"New York 3","slug":"nyc3","sizes":["512mb","1gb","2gb","4gb","8gb","16gb","32gb","48gb","64gb"],"features":["private_networking","backups","ipv6","metadata"],"available":true},"region_slug":"nyc3"},{"id":34196052,"status":"completed","type":"destroy","started_at":"2014-10-11T11:48:12Z","completed_at":"2014-10-11T11:48:21Z","resource_id":2842020,"resource_type":"droplet","region":{"name":"New York 3","slug":"nyc3","sizes":["512mb","1gb","2gb","4gb","8gb","16gb","32gb","48gb","64gb"],"features":["private_networking","backups","ipv6","metadata"],"available":true},"region_slug":"nyc3"},{"id":34195960,"status":"completed","type":"create","started_at":"2014-10-11T11:44:56Z","completed_at":"2014-10-11T11:45:08Z","resource_id":2842027,"resource_type":"droplet","region":{"name":"New York 3","slug":"nyc3","sizes":["512mb","1gb","2gb","4gb","8gb","16gb","32gb","48gb","64gb"],"features":["private_networking","backups","ipv6","metadata"],"available":true},"region_slug":"nyc3"},{"id":34195947,"status":"completed","type":"create","started_at":"2014-10-11T11:44:23Z","completed_at":"2014-10-11T11:44:32Z","resource_id":2842024,"resource_type":"droplet","region":{"name":"New York 3","slug":"nyc3","sizes":["512mb","1gb","2gb","4gb","8gb","16gb","32gb","48gb","64gb"],"features":["private_networking","backups","ipv6","metadata"],"available":true},"region_slug":"nyc3"},{"id":34195936,"status":"completed","type":"create","started_at":"2014-10-11T11:43:55Z","completed_at":"2014-10-11T11:44:04Z","resource_id":2842020,"resource_type":"droplet","region":{"name":"New York 3","slug":"nyc3","sizes":["512mb","1gb","2gb","4gb","8gb","16gb","32gb","48gb","64gb"],"features":["private_networking","backups","ipv6","metadata"],"available":true},"region_slug":"nyc3"}],"links":{"pages":{"first":"https://api.digitalocean.com/v2/actions?page=1","prev":"https://api.digitalocean.com/v2/actions?page=3","last":"https://api.digitalocean.com/v2/actions?page=5","next":"https://api.digitalocean.com/v2/actions?page=5"}},"meta":{"total":87}}